{
  "listings": [
    {
      "id": "9sdas",
      "title": "This is a nice House",
      "thumbImage": "https://source.unsplash.com/pmhdkgRCbtE/400x300/",
      "fullImage": "https://source.unsplash.com/pmhdkgRCbtE/1000x800/",
      "address": {
        "firstLine": "Cottage Lane Orchard",
        "city": "Dublin",
        "country": "Ireland"
      },
      "price": 1000000,
      "extraDetails": [
        {
          "title": "beds",
          "text": 10
        },
        {
          "title": "Bathrooms",
          "text": 1
        },
        {
          "title": "Built in kitchen",
          "text": "The kitchen is build into the house"
        }
      ]
    },
    {
      "id": "9sdasi1",
      "title": "This is a nice House",
      "thumbImage": "https://source.unsplash.com/_w-TB-ZTBg8/400x300/",
      "fullImage": "https://source.unsplash.com/_w-TB-ZTBg8/1000x800/",
      "address": {
        "firstLine": "Cottage Lane Orchard",
        "city": "Dublin",
        "country": "Ireland"
      },
      "price": 3000000,
      "extraDetails": [
        {
          "title": "beds",
          "text": 1
        },
        {
          "title": "Bathrooms",
          "text": 0.5
        },
        {
          "title": "Neighbours",
          "text": "Can only visit house when the neighbours are at work"
        }
      ]
    },
    {
      "id": "9sdasi2",
      "title": "This is a nicer House",
      "thumbImage": "https://source.unsplash.com/wHUFmZRMpLc/400x300/",
      "fullImage": "https://source.unsplash.com/wHUFmZRMpLc/1000x800/",
      "address": {
        "firstLine": "Lane Cottage Orchard",
        "city": "Dublin",
        "country": "Ireland"
      },
      "price": 10000
    },
    {
      "id": "9sdasi3",
      "title": "This is a nicest House",
      "thumbImage": "https://source.unsplash.com/XJnP4L958ds/400x300/",
      "fullImage": "https://source.unsplash.com/XJnP4L958ds/1000x800/",
      "address": {
        "firstLine": "Orchard Cottage Lane",
        "city": "Dublin",
        "country": "Ireland"
      },
      "price": 99999999.95,
      "extraDetails": [
        {
          "title": "Beds",
          "text": 0
        },
        {
          "title": "Bathrooms",
          "text": 100
        },
        {
          "title": "Bedrooms",
          "text": "All bedrooms are located off site"
        }
      ]
    },
    {
      "id": "9sdasi4",
      "title": "This is a nicestest House",
      "thumbImage": "https://source.unsplash.com/lFpqHAmeLZg/400x300/",
      "fullImage": "https://source.unsplash.com/lFpqHAmeLZg/1000x800/",
      "address": {
        "firstLine": "Cottage Orchard Lane",
        "city": "Dublin",
        "country": "Ireland"
      },
      "price": 1000000,
      "extraDetails": [
        {
          "title": "Beds",
          "text": 1
        },
        {
          "title": "Bathrooms",
          "text": 1
        },
        {
          "title": "Initiative loo Design",
          "text": "The loo is dug into the landscape to help cut on the carbon footprint of the house"
        }
      ]
    }
  ]
}
